{
    "version": "https://jsonfeed.org/version/1",
    "title": "LearnJavascript",
    "description": "",
    "home_page_url": "https://zaktwist.gitlab.io/learnjavascript",
    "feed_url": "https://zaktwist.gitlab.io/learnjavascript/feed.json",
    "user_comment": "",
    "author": {
        "name": "Zak"
    },
    "items": [
        {
            "id": "https://zaktwist.gitlab.io/learnjavascript/the-modern-javascript-tutorial.html",
            "url": "https://zaktwist.gitlab.io/learnjavascript/the-modern-javascript-tutorial.html",
            "title": "The Modern JavaScript Tutorial",
            "summary": "https://javascript.info/ Il corso principale contiene 2 parti che trattano JavaScript come linguaggio di programmazione e funzionano con un browser. Sono inoltre disponibili ulteriori serie di articoli tematici. https://github.com/javascript-tutorial/en.javascript.info ",
            "content_html": "<p><em><a href=\"https://javascript.info/\" title=\"The Modern JavaScript Tutorial\" target=\"_blank\" rel=\"noopener noreferrer\">https://javascript.info/</a></em></p>\n<p>Il corso principale contiene 2 parti che trattano JavaScript come linguaggio di programmazione e funzionano con un browser. Sono inoltre disponibili ulteriori serie di articoli tematici.</p>\n<p><a href=\"https://github.com/javascript-tutorial/en.javascript.info\" title=\"JavaScript Tutorial\" target=\"_blank\" rel=\"noopener noreferrer\">https://github.com/javascript-tutorial/en.javascript.info</a></p>\n<figure class=\"post__image post__image--left\" ><img loading=\"lazy\" src=\"https://images.pexels.com/photos/1181675/pexels-photo-1181675.jpeg?auto=compress&amp;cs=tinysrgb&amp;dpr=2&amp;h=650&amp;w=940\" data-is-external-image=\"true\"  alt=\"Programmazione\" width=\"250\" height=\"167\">\n<figcaption > Foto di <strong><a href=\"https://www.pexels.com/it-it/@divinetechygirl?utm_content=attributionCopyText&amp;utm_medium=referral&amp;utm_source=pexels\">Christina Morillo</a></strong> da <strong><a href=\"https://www.pexels.com/it-it/foto/fotografia-di-persona-che-scrive-1181675/?utm_content=attributionCopyText&amp;utm_medium=referral&amp;utm_source=pexels\">Pexels</a></strong></figcaption>\n</figure>\n<p> </p>\n<p> </p>\n<p> </p>\n<p class=\"align-left\"> </p>",
            "image": "https://zaktwist.gitlab.io/learnjavascript/media/posts/1/pexels-christina-morillo-1181675.jpg",
            "author": {
                "name": "Zak"
            },
            "tags": [
                   "Tutorial",
                   "Programmazione",
                   "Learn",
                   "JavaScript"
            ],
            "date_published": "2021-02-04T23:51:49+01:00",
            "date_modified": "2021-02-05T00:40:19+01:00"
        }
    ]
}
